…
7.2

14.4

<U+2587><U+2583><U+2585><U+2583><U+2581>

#looking closer at countries with missing data or low alcohol consumption
alcohol_direct %>%
  filter(total_litres_of_pure_alcohol<1) %>%
  group_by(country) %>%
  summarize(beer_servings,spirit_servings,wine_servings,total_litres_of_pure_alcohol)%>%
  arrange(total_litres_of_pure_alcohol)

## # A tibble: 40 x 5
##    country          beer_servings spirit_servings wine_servings total_litres_of~
##    <chr>                    <dbl>           <dbl>         <dbl>            <dbl>
##  1 Afghanistan                  0               0             0                0
##  2 Bangladesh                   0               0             0                0
##  3 Iran                         0               0             0                0
##  4 Kuwait                       0               0             0                0
##  5 Libya                        0               0             0                0
##  6 Maldives                     0               0             0                0
##  7 Marshall Islands             0               0             0                0
##  8 Mauritania                   0               0             0                0
##  9 Monaco                       0               0             0                0
## 10 North Korea                  0               0             0                0
## # ... with 30 more rows
…
